C:\Users\ramannpr\eclipse-workspace\springmvc\src\main\java\com\demo\springmvc\dao\StudentDaoImpl.java
C:\Users\ramannpr\eclipse-workspace\springmvc\src\main\java\com\demo\springmvc\dao\StudentMapper.java
C:\Users\ramannpr\eclipse-workspace\springmvc\src\main\java\com\demo\springmvc\dao\StudentRepository.java
C:\Users\ramannpr\eclipse-workspace\springmvc\src\main\java\com\demo\springmvc\model\Student.java
C:\Users\ramannpr\eclipse-workspace\springmvc\src\main\java\com\demo\springmvc\exceptions\StudentNotFoundException.java
C:\Users\ramannpr\eclipse-workspace\springmvc\src\main\java\com\demo\springmvc\controller\StudentRegistrationController.java
C:\Users\ramannpr\eclipse-workspace\springmvc\src\main\java\com\demo\springmvc\dao\StudentDao.java
C:\Users\ramannpr\eclipse-workspace\springmvc\src\main\java\com\demo\springmvc\dao\StudentRepositoryImpl.java
C:\Users\ramannpr\eclipse-workspace\springmvc\src\main\java\com\demo\springmvc\service\StudentRegistrationService.java
C:\Users\ramannpr\eclipse-workspace\springmvc\src\main\java\com\demo\springmvc\service\StudentRegistrationServiceImpl.java
